{
  "ingredients": {
    "sugars, granulated": 800.0,
    "water, bottled, generic": 10000000.0,
    "butter, without salt": 150.0,
    "oil, olive, salad or cooking": 50.0,
    "wheat flour, white, all-purpose, unenriched": 400.0,
    "spices, garlic powder": 20.0,
    "cheese, parmesan, hard": 100.0,
    "soy sauce made from soy (tamari)": 30.0,
    "rice, white, long-grain, regular, unenriched, cooked without salt": 400.0,
    "milk, fluid, 1% fat, without added vitamin a and vitamin d": 200.0
  },
  "recipes": []
}
